Where does this abstract belong?
…
---

### tf-idf

```r
book_words <- austen_books() %>%
  unnest_tokens(word, text) %>%
  count(book, word, sort = TRUE)

book_words
```

```
## # A tibble: 40,379 x 3
##    book              word      n
##    <fct>             <chr> <int>
##  1 Mansfield Park    the    6206
##  2 Mansfield Park    to     5475
##  3 Mansfield Park    and    5438
##  4 Emma              to     5239
##  5 Emma              the    5201
##  6 Emma              and    4896
##  7 Mansfield Park    of     4778
##  8 Pride & Prejudice the    4331
##  9 Emma              of     4291
## 10 Pride & Prejudice to     4162
## # ... with 40,369 more rows
```
…
---

### tf-idf

```r
book_words %>%
  bind_tf_idf(word, book, n)
```

```
## # A tibble: 40,379 x 6
##    book              word      n     tf   idf tf_idf
##    <fct>             <chr> <int>  <dbl> <dbl>  <dbl>
##  1 Mansfield Park    the    6206 0.0387     0      0
##  2 Mansfield Park    to     5475 0.0341     0      0
##  3 Mansfield Park    and    5438 0.0339     0      0
##  4 Emma              to     5239 0.0325     0      0
##  5 Emma              the    5201 0.0323     0      0
##  6 Emma              and    4896 0.0304     0      0
##  7 Mansfield Park    of     4778 0.0298     0      0
##  8 Pride & Prejudice the    4331 0.0354     0      0
##  9 Emma              of     4291 0.0267     0      0
## 10 Pride & Prejudice to     4162 0.0341     0      0
## # ... with 40,369 more rows
```

---

### tf-idf

```r
book_words %>%
  bind_tf_idf(word, book, n) %>%
* arrange(desc(tf_idf))
```

```
## # A tibble: 40,379 x 6
##    book                word          n      tf   idf  tf_idf
##    <fct>               <chr>     <int>   <dbl> <dbl>   <dbl>
##  1 Sense & Sensibility elinor      623 0.00519  1.79 0.00931
##  2 Sense & Sensibility marianne    492 0.00410  1.79 0.00735
##  3 Mansfield Park      crawford    493 0.00307  1.79 0.00551
##  4 Pride & Prejudice   darcy       373 0.00305  1.79 0.00547
##  5 Persuasion          elliot      254 0.00304  1.79 0.00544
##  6 Emma                emma        786 0.00488  1.10 0.00536
##  7 Northanger Abbey    tilney      196 0.00252  1.79 0.00452
##  8 Emma                weston      389 0.00242  1.79 0.00433
##  9 Pride & Prejudice   bennet      294 0.00241  1.79 0.00431
## 10 Persuasion          wentworth   191 0.00228  1.79 0.00409
## # ... with 40,369 more rows
```
…
